Lab_4/simulation/qsim/Laboratoire4.msim.vcd
$comment
	File created using the following command:
		vcd file Laboratoire4.msim.vcd -direction
$end
$date
	Fri Dec 01 17:06:50 2023
$end
$version
	ModelSim Version 10.1d
$end
$timescale
	1ps
$end
$scope module diagram_test_uart_fsm_with_uart_emetteur_vlg_vec_tst $end
$var reg 1 ! CLOCK $end
$var reg 1 " LOAD_CONTROLEUR $end
$var reg 1 # LOAD_UART_FSM $end
$var reg 1 $ RESET_BAR $end
$var reg 2 % STATE [1:0] $end
$var wire 1 & o_TxD $end
$var wire 1 ' sampler $end
$scope module i1 $end
$var wire 1 ( gnd $end
$var wire 1 ) vcc $end
$var wire 1 * unknown $end
$var tri1 1 + devclrn $end
$var tri1 1 , devpor $end
$var tri1 1 - devoe $end
$var wire 1 . o_TxD~output_o $end
$var wire 1 / CLOCK~input_o $end
$var wire 1 0 CLOCK~inputclkctrl_outclk $end
$var wire 1 1 STATE[0]~input_o $end
$var wire 1 2 STATE[1]~input_o $end
$var wire 1 3 inst1|comb~13_combout $end
$var wire 1 4 inst1|comb~6_combout $end
$var wire 1 5 inst1|comb~11_combout $end
$var wire 1 6 inst1|comb~12_combout $end
$var wire 1 7 inst1|comb~16_combout $end
$var wire 1 8 inst1|comb~17_combout $end
$var wire 1 9 inst1|comb~14_combout $end
$var wire 1 : RESET_BAR~input_o $end
$var wire 1 ; RESET_BAR~inputclkctrl_outclk $end
$var wire 1 < LOAD_UART_FSM~input_o $end
$var wire 1 = inst1|Y1|int_q~q $end
$var wire 1 > inst1|comb~7_combout $end
$var wire 1 ? inst1|comb~10_combout $end
$var wire 1 @ inst1|comb~8_combout $end
$var wire 1 A inst1|comb~9_combout $end
$var wire 1 B inst1|comb~18_combout $end
$var wire 1 C inst1|comb~19_combout $end
$var wire 1 D inst1|Y2|int_q~q $end
$var wire 1 E inst1|comb~2_combout $end
$var wire 1 F inst1|comb~15_combout $end
$var wire 1 G inst1|comb~4_combout $end
$var wire 1 H inst1|comb~3_combout $end
$var wire 1 I inst1|comb~5_combout $end
$var wire 1 J inst1|Y0|int_q~q $end
$var wire 1 K inst1|Multiplexeur|Mux5~0_combout $end
$var wire 1 L inst|CONTOLEUR_UART_EMETTEUR|RTDV~0_combout $end
$var wire 1 M inst|RTD_UART_EMETTEUR|bit2|int_q~q $end
$var wire 1 N inst1|Multiplexeur|Mux7~0_combout $end
$var wire 1 O inst|RTD_UART_EMETTEUR|bit0|int_q~q $end
$var wire 1 P inst1|Multiplexeur|Mux2~0_combout $end
$var wire 1 Q inst|RTD_UART_EMETTEUR|bit5|int_q~q $end
$var wire 1 R inst1|Multiplexeur|Mux3~0_combout $end
$var wire 1 S inst|RTD_UART_EMETTEUR|bit4|int_q~q $end
$var wire 1 T inst1|Multiplexeur|Mux4~0_combout $end
$var wire 1 U inst|RTD_UART_EMETTEUR|bit3|int_q~q $end
$var wire 1 V inst1|Multiplexeur|Mux1~0_combout $end
$var wire 1 W inst|RTD_UART_EMETTEUR|bit6|int_q~q $end
$var wire 1 X inst|RTD_UART_EMETTEUR|sending_data_done~0_combout $end
$var wire 1 Y inst1|Multiplexeur|Mux6~0_combout $end
$var wire 1 Z inst|RTD_UART_EMETTEUR|bit1|int_q~q $end
$var wire 1 [ inst|RTD_UART_EMETTEUR|sending_data_done~combout $end
$var wire 1 \ inst|CONTOLEUR_UART_EMETTEUR|comb~0_combout $end
$var wire 1 ] LOAD_CONTROLEUR~input_o $end
$var wire 1 ^ inst|CONTOLEUR_UART_EMETTEUR|Y0|int_q~q $end
$var wire 1 _ inst|RDTD_UART_EMETTEUR|Counter|y0|int_q~0_combout $end
$var wire 1 ` inst|RDTD_UART_EMETTEUR|Counter|y0|int_q~q $end
$var wire 1 a inst|RDTD_UART_EMETTEUR|Counter|y1|int_q~0_combout $end
$var wire 1 b inst|RDTD_UART_EMETTEUR|Counter|y1|int_q~q $end
$var wire 1 c inst|CONTOLEUR_UART_EMETTEUR|RTDV~1_combout $end
$var wire 1 d inst|RDTD_UART_EMETTEUR|Counter|y2|int_q~0_combout $end
$var wire 1 e inst|RDTD_UART_EMETTEUR|Counter|y2|int_q~q $end
$var wire 1 f inst|RDTD_UART_EMETTEUR|Counter|y3|int_q~2_combout $end
$var wire 1 g inst|RDTD_UART_EMETTEUR|Counter|y3|int_q~3_combout $end
$var wire 1 h inst|RDTD_UART_EMETTEUR|Counter|y3|int_q~q $end
$var wire 1 i inst|RDTD_UART_EMETTEUR|Comparateur|out_eq~0_combout $end
$var wire 1 j inst|CONTOLEUR_UART_EMETTEUR|comb~1_combout $end
$var wire 1 k inst|CONTOLEUR_UART_EMETTEUR|Y1|int_q~q $end
$var wire 1 l inst|CONTOLEUR_UART_EMETTEUR|load_RDTD~0_combout $end
$var wire 1 m inst|RDTD_UART_EMETTEUR|bit8|int_q~q $end
$var wire 1 n inst|RDTD_UART_EMETTEUR|comb~7_combout $end
$var wire 1 o inst|RDTD_UART_EMETTEUR|bit7|int_q~q $end
$var wire 1 p inst|RDTD_UART_EMETTEUR|comb~6_combout $end
$var wire 1 q inst|RDTD_UART_EMETTEUR|bit6|int_q~q $end
$var wire 1 r inst|RDTD_UART_EMETTEUR|comb~5_combout $end
$var wire 1 s inst|RDTD_UART_EMETTEUR|bit5|int_q~q $end
$var wire 1 t inst|RDTD_UART_EMETTEUR|comb~4_combout $end
$var wire 1 u inst|RDTD_UART_EMETTEUR|bit4|int_q~q $end
$var wire 1 v inst|RDTD_UART_EMETTEUR|comb~3_combout $end
$var wire 1 w inst|RDTD_UART_EMETTEUR|bit3|int_q~q $end
$var wire 1 x inst|RDTD_UART_EMETTEUR|comb~2_combout $end
$var wire 1 y inst|RDTD_UART_EMETTEUR|bit2|int_q~q $end
$var wire 1 z inst|RDTD_UART_EMETTEUR|comb~1_combout $end
$var wire 1 { inst|RDTD_UART_EMETTEUR|bit1|int_q~q $end
$var wire 1 | inst|RDTD_UART_EMETTEUR|comb~0_combout $end
$var wire 1 } inst|RDTD_UART_EMETTEUR|bit0|int_q~q $end
$var wire 1 ~ inst|RDTD_UART_EMETTEUR|o_Value~combout $end
$upscope $end
$upscope $end
$enddefinitions $end
#0
$dumpvars
0!
0"
0#
0$
b0 %
1&
x'
0(
1)
x*
1+
1,
1-
1.
0/
00
01
02
03
04
05
06
17
08
09
0:
0;
0<
0=
0>
0?
0@
0A
1B
0C
0D
1E
0F
1G
0H
0I
0J
0K
1L
0M
0N
0O
0P
0Q
1R
0S
0T
0U
1V
0W
0X
0Y
0Z
0[
1\
0]
0^
0_
0`
0a
0b
0c
0d
0e
0f
0g
0h
0i
0j
0k
0l
0m
0n
0o
0p
0q
0r
0s
0t
0u
0v
0w
0x
0y
0z
0{
0|
0}
1~
$end
#15000
1!
1/
10
0'
#30000
0!
0/
00
1'
#40000
1"
1#
1$
1]
1<
1:
1;
0'
#45000
1!
1/
10
1'
1^
1W
1S
1r
1n
1l
0L
1X
1[
1j
0\
#60000
0!
0/
00
0'
#75000
1!
1/
10
1'
1s
1o
1k
0^
1t
1p
0r
0n
1c
1_
0~
0.
0&
#90000
0!
0/
00
0'
#105000
1!
1/
10
1'
1u
0s
1q
0o
1m
1`
1v
0t
1r
0p
1n
1a
0_
#120000
0!
0/
00
0'
#135000
1!
1/
10
1'
1w
0u
1s
0q
1o
1b
0`
1x
0v
1t
0r
1p
1_
#150000
0!
0/
00
0'
#165000
1!
1/
10
1'
1y
0w
1u
0s
1q
1`
1z
0x
1v
0t
1r
1d
0a
0_
#180000
0!
0/
00
0'
#195000
1!
1/
10
1'
1{
0y
1w
0u
1s
1e
0b
0`
1|
0z
1x
0v
1t
1_
#210000
0!
0/
00
0'
#225000
1!
1/
10
1'
1}
0{
1y
0w
1u
1`
0|
1z
0x
1v
1a
0_
1~
1.
1&
#240000
0!
0/
00
0'
#255000
1!
1/
10
1'
0}
1{
0y
1w
1b
0`
1|
0z
1x
1_
0~
0.
0&
#270000
0!
0/
00
0'
#285000
1!
1/
10
1'
1}
0{
1y
1`
0|
1z
1f
0d
0a
0_
1~
1g
1.
1&
#300000
0!
0/
00
0'
#315000
1!
1/
10
1'
0}
1{
1h
0e
0b
0`
1|
1_
0~
0.
0&
#330000
0!
0/
00
0'
#345000
1!
1/
10
1'
1}
1`
1i
1a
0_
1~
0j
1H
1F
1C
0B
07
14
1.
1&
1I
0C
#360000
0!
0/
00
0'
#375000
1!
1/
10
1'
0k
1b
0`
1J
0|
0z
0x
0v
0t
0p
0l
0g
0c
0a
1\
1L
0i
1Y
1P
1K
0E
13
1B
17
04
19
09
#390000
0!
0/
00
0'
#405000
1!
1/
10
1'
0h
0b
1^
1Z
1Q
1M
0f
1x
1v
1p
1l
1j
0\
0L
#420000
0!
0/
00
0'
#435000
1!
1/
10
1'
0}
0{
0u
0m
1k
0^
0v
0n
1z
1t
1c
1_
0~
0.
0&
#450000
0!
0/
00
0'
#465000
1!
1/
10
1'
1{
0w
1u
0o
1m
1`
1|
0x
1v
0p
1n
1a
0_
#480000
0!
0/
00
0'
#495000
1!
1/
10
1'
1}
0y
1w
0q
1o
1b
0`
0z
1x
0r
1p
1_
1~
1.
1&
#510000
0!
0/
00
0'
#525000
1!
1/
10
1'
0{
1y
0s
1q
1`
0|
1z
0t
1r
1d
0a
0_
#540000
0!
0/
00
0'
#555000
1!
1/
10
1'
0}
1{
0u
1s
1e
0b
0`
1|
0v
1t
1_
0~
0.
0&
#570000
0!
0/
00
0'
#585000
1!
1/
10
1'
1}
0w
1u
1`
0x
1v
1a
0_
1~
1.
1&
#600000
0!
0/
00
0'
#615000
1!
1/
10
1'
0y
1w
1b
0`
0z
1x
1_
#630000
0!
0/
00
0'
#645000
1!
1/
10
1'
0{
1y
1`
0|
1z
1f
0d
0a
0_
1g
#660000
0!
0/
00
0'
#675000
1!
1/
10
1'
0}
1{
1h
0e
0b
0`
1|
1_
0~
0.
0&
#690000
0!
0/
00
0'
#705000
1!
1/
10
1'
1}
1`
1i
1a
0_
1~
0j
0H
0F
1C
0B
07
14
1.
1&
0I
0C
19
#720000
0!
0/
00
0'
#735000
1!
1/
10
1'
0k
1b
0`
0J
1=
0|
0z
0t
0l
0g
0c
0a
1\
1L
0i
1T
0P
1N
1H
1E
0H
1B
17
04
1I
0I
18
09
19
#750000
0!
0/
00
0'
#765000
1!
1/
10
1'
0h
0b
1^
1U
0Q
1O
0f
1z
1t
0p
1l
1j
0\
0L
#780000
0!
0/
00
0'
#795000
1!
1/
10
1'
0}
0q
0m
1k
0^
0r
0n
1|
1p
1c
1_
0~
0.
0&
#810000
0!
0/
00
0'
#825000
1!
1/
10
1'
1}
0s
1q
0o
1m
1`
0t
1r
0p
1n
1a
0_
1~
1.
1&
#840000
0!
0/
00
0'
#855000
1!
1/
10
1'
0u
1s
0q
1o
1b
0`
0v
1t
0r
1p
1_
#870000
0!
0/
00
0'
#885000
1!
1/
10
1'
0w
1u
0s
1q
1`
0x
1v
0t
1r
1d
0a
0_
#900000
0!
0/
00
0'
#915000
1!
1/
10
1'
0y
1w
0u
1s
1e
0b
0`
0z
1x
0v
1t
1_
#930000
0!
0/
00
0'
#945000
1!
1/
10
1'
0{
1y
0w
1u
1`
0|
1z
0x
1v
1a
0_
#960000
0!
0/
00
0'
#975000
1!
1/
10
1'
0}
1{
0y
1w
1b
0`
1|
0z
1x
1_
0~
0.
0&
#990000
0!
0/
00
0'
#1005000
1!
1/
10
1'
1}
0{
1y
1`
0|
1z
1f
0d
0a
0_
1~
1g
1.
1&
#1020000
0!
0/
00
0'
#1035000
1!
1/
10
1'
0}
1{
1h
0e
0b
0`
1|
1_
0~
0.
0&
#1050000
0!
0/
00
0'
#1065000
1!
1/
10
1'
1}
1`
1i
1a
0_
1~
0j
1H
1F
1C
0B
07
14
1.
1&
1I
0C
08
#1080000
0!
0/
00
0'
#1095000
1!
1/
10
1'
0k
1b
0`
1J
0|
0p
0l
0g
0c
0a
1\
1L
0i
0Y
0R
0N
0E
1>
03
1B
1?
17
04
09
1C
0B
18
0C
19
#1110000
0!
0/
00
0'
#1125000
1!
1/
10
1'
0h
0b
1^
0Z
0S
0O
0f
0z
0x
0r
1l
1j
0\
0L
#1140000
0!
0/
00
0'
#1155000
1!
1/
10
1'
0}
0{
0y
0s
0q
0m
1k
0^
0t
0n
1x
1p
1c
1_
0~
0.
0&
#1170000
0!
0/
00
0'
#1185000
1!
1/
10
1'
1y
0u
1q
0o
1m
1`
1z
0v
1r
0p
1n
1a
0_
#1200000
0!
0/
00
0'
#1215000
1!
1/
10
1'
1{
0w
1s
0q
1o
1b
0`
1|
0x
1t
0r
1p
1_
#1230000
0!
0/
00
0'
#1245000
1!
1/
10
1'
1}
0y
1u
0s
1q
1`
0z
1v
0t
1r
1d
0a
0_
1~
1.
1&
#1260000
0!
0/
00
0'
#1275000
1!
1/
10
1'
0{
1w
0u
1s
1e
0b
0`
0|
1x
0v
1t
1_
#1290000
0!
0/
00
0'
#1305000
1!
1/
10
1'
0}
1y
0w
1u
1`
1z
0x
1v
1a
0_
0~
0.
0&
#1320000
0!
0/
00
0'
#1335000
1!
1/
10
1'
1{
0y
1w
1b
0`
1|
0z
1x
1_
#1350000
0!
0/
00
0'
#1365000
1!
1/
10
1'
1}
0{
1y
1`
0|
1z
1f
0d
0a
0_
1~
1g
1.
1&
#1380000
0!
0/
00
0'
#1395000
1!
1/
10
1'
0}
1{
1h
0e
0b
0`
1|
1_
0~
0.
0&
#1410000
0!
0/
00
0'
#1425000
1!
1/
10
1'
1}
1`
1i
1a
0_
1~
0j
0H
0F
1@
07
14
1.
1&
0I
08
1B
09
1C
#1440000
0!
0/
00
0'
#1455000
1!
1/
10
1'
0k
1b
0`
0J
1D
0=
0|
0z
0x
0r
0p
0l
0g
0c
0a
1\
1L
0i
1Y
0T
1R
1P
0K
1H
1E
0?
0>
0G
0H
17
04
#1470000
0!
0/
00
0'
#1485000
1!
1/
10
1'
0h
0b
1^
1Z
0U
1S
1Q
0M
0f
1x
0v
0t
1r
1p
1l
1j
0\
0L
#1500000
0!
0/
00
0'
#1515000
1!
1/
10
1'
0}
0{
0w
0u
0m
1k
0^
0x
0n
1z
1t
1c
1_
0~
0.
0&
#1530000
0!
0/
00
0'
#1545000
1!
1/
10
1'
1{
0y
1u
0o
1m
1`
1|
0z
1v
0p
1n
1a
0_
#1560000
0!
0/
00
0'
#1575000
1!
1/
10
1'
1}
0{
1w
0q
1o
1b
0`
0|
1x
0r
1p
1_
1~
1.
1&
#1590000
0!
0/
00
0'
#1605000
1!
1/
10
1'
0}
1y
0s
1q
1`
1z
0t
1r
1d
0a
0_
0~
0.
0&
#1620000
0!
0/
00
0'
#1635000
1!
1/
10
1'
1{
0u
1s
1e
0b
0`
1|
0v
1t
1_
#1650000
0!
0/
00
0'
#1665000
1!
1/
10
1'
1}
0w
1u
1`
0x
1v
1a
0_
1~
1.
1&
#1680000
0!
0/
00
0'
#1695000
1!
1/
10
1'
0y
1w
1b
0`
0z
1x
1_
#1710000
0!
0/
00
0'
#1725000
1!
1/
10
1'
0{
1y
1`
0|
1z
1f
0d
0a
0_
1g
#1740000
0!
0/
00
0'
#1755000
1!
1/
10
1'
0}
1{
1h
0e
0b
0`
1|
1_
0~
0.
0&
#1770000
0!
0/
00
0'
#1785000
1!
1/
10
1'
1}
1`
1i
1a
0_
1~
0j
1H
1F
0C
0B
07
14
1.
1&
1I
1C
#1800000
0!
0/
00
0'
#1815000
1!
1/
10
1'
0k
1b
0`
1J
0|
0z
0v
0t
0l
0g
0c
0a
1\
1L
0i
0Y
0V
1T
0R
0P
1N
1K
0E
0@
1?
0C
1B
1@
0?
17
04
1C
#1830000
0!
0/
00
0'
#1845000
1!
1/
10
1'
0h
0b
1^
0Z
0W
1U
0S
0Q
1O
1M
0f
1z
0x
1v
1t
0r
0p
0n
1l
1j
0\
0L
#1860000
0!
0/
00
0'
#1875000
1!
1/
10
1'
0}
0y
0s
0q
0o
0m
1k
0^
0z
0t
1|
1x
1c
1_
0~
0.
0&
#1890000
0!
0/
00
0'
#1905000
1!
1/
10
1'
1}
0{
1y
0u
1m
1`
0|
1z
0v
1n
1a
0_
1~
1.
1&
#1920000
0!
0/
00
0'
#1935000
1!
1/
10
1'
0}
1{
0w
1o
1b
0`
1|
0x
1p
1_
0~
0.
0&
#1950000
0!
0/
00
0'
#1965000
1!
1/
10
1'
1}
0y
1q
1`
0z
1r
1d
0a
0_
1~
1.
1&
#1980000
0!
0/
00
0'
#1995000
1!
1/
10
1'
0{
1s
1e
0b
0`
0|
1t
1_
#2010000
0!
0/
00
0'
#2025000
1!
1/
10
1'
0}
1u
1`
1v
1a
0_
0~
0.
0&
#2040000
0!
0/
00
0'
#2055000
1!
1/
10
1'
1w
1b
0`
1x
1_
#2070000
0!
0/
00
0'
#2085000
1!
1/
10
1'
1y
1`
1z
1f
0d
0a
0_
1g
#2100000
0!
0/
00
0'
#2115000
1!
1/
10
1'
1{
1h
0e
0b
0`
1|
1_
#2130000
0!
0/
00
0'
#2145000
1!
1/
10
1'
1}
1`
1i
1a
0_
1~
0j
0H
0F
0C
0B
0@
1?
07
14
1.
1&
0I
1B
#2160000
0!
0/
00
0'
#2175000
1!
1/
10
1'
0k
1b
0`
0J
0D
0|
0x
0r
0p
0n
0l
0g
0c
0a
1\
1L
0i
1V
0T
1R
0N
0K
1H
1E
0?
1G
0H
17
04
#2190000
0!
0/
00
0'
#2205000
1!
1/
10
1'
0h
0b
1^
1W
0U
1S
0O
0M
0f
0z
0v
0t
1r
1n
1l
1j
0\
0L
#2220000
0!
0/
00
0'
#2235000
1!
1/
10
1'
0}
0{
0y
0w
0u
0q
0m
1k
0^
0r
0n
1t
1p
1c
1_
0~
0.
0&
#2250000
0!
0/
00
0'
#2265000
1!
1/
10
1'
1u
0s
1q
0o
1m
1`
1v
0t
1r
0p
1n
1a
0_
#2280000
0!
0/
00
0'
#2295000
1!
1/
10
1'
1w
0u
1s
0q
1o
1b
0`
1x
0v
1t
0r
1p
1_
#2310000
0!
0/
00
0'
#2325000
1!
1/
10
1'
1y
0w
1u
0s
1q
1`
1z
0x
1v
0t
1r
1d
0a
0_
#2340000
0!
0/
00
0'
#2355000
1!
1/
10
1'
1{
0y
1w
0u
1s
1e
0b
0`
1|
0z
1x
0v
1t
1_
#2370000
0!
0/
00
0'
#2385000
1!
1/
10
1'
1}
0{
1y
0w
1u
1`
0|
1z
0x
1v
1a
0_
1~
1.
1&
#2400000
0!
0/
00
0'
#2415000
1!
1/
10
1'
0}
1{
0y
1w
1b
0`
1|
0z
1x
1_
0~
0.
0&
#2430000
0!
0/
00
0'
#2445000
1!
1/
10
1'
1}
0{
1y
1`
0|
1z
1f
0d
0a
0_
1~
1g
1.
1&
#2460000
0!
0/
00
0'
#2475000
1!
1/
10
1'
0}
1{
1h
0e
0b
0`
1|
1_
0~
0.
0&
#2490000
0!
0/
00
0'
#2505000
1!
1/
10
1'
1}
1`
1i
1a
0_
1~
0j
1H
1F
1C
0B
07
14
1.
1&
1I
0C
#2520000
0!
0/
00
0'
#2535000
1!
1/
10
1'
0k
1b
0`
1J
0|
0z
0x
0v
0t
0p
0l
0g
0c
0a
1\
1L
0i
1Y
1P
1K
0E
13
1B
17
04
19
09
#2550000
0!
0/
00
0'
#2565000
1!
1/
10
1'
0h
0b
1^
1Z
1Q
1M
0f
1x
1v
1p
1l
1j
0\
0L
#2580000
0!
0/
00
0'
#2595000
1!
1/
10
1'
0}
0{
0u
0m
1k
0^
0v
0n
1z
1t
1c
1_
0~
0.
0&
#2610000
0!
0/
00
0'
#2625000
1!
1/
10
1'
1{
0w
1u
0o
1m
1`
1|
0x
1v
0p
1n
1a
0_
#2640000
0!
0/
00
0'
#2655000
1!
1/
10
1'
1}
0y
1w
0q
1o
1b
0`
0z
1x
0r
1p
1_
1~
1.
1&
#2670000
0!
0/
00
0'
#2685000
1!
1/
10
1'
0{
1y
0s
1q
1`
0|
1z
0t
1r
1d
0a
0_
#2700000
0!
0/
00
0'
#2715000
1!
1/
10
1'
0}
1{
0u
1s
1e
0b
0`
1|
0v
1t
1_
0~
0.
0&
#2730000
0!
0/
00
0'
#2745000
1!
1/
10
1'
1}
0w
1u
1`
0x
1v
1a
0_
1~
1.
1&
#2760000
0!
0/
00
0'
#2775000
1!
1/
10
1'
0y
1w
1b
0`
0z
1x
1_
#2790000
0!
0/
00
0'
#2805000
1!
1/
10
1'
0{
1y
1`
0|
1z
1f
0d
0a
0_
1g
#2820000
0!
0/
00
0'
#2835000
1!
1/
10
1'
0}
1{
1h
0e
0b
0`
1|
1_
0~
0.
0&
#2850000
0!
0/
00
0'
#2865000
1!
1/
10
1'
1}
1`
1i
1a
0_
1~
0j
0H
0F
1C
0B
07
14
1.
1&
0I
0C
19
#2880000
0!
0/
00
0'
#2895000
1!
1/
10
1'
0k
1b
0`
0J
1=
0|
0z
0t
0l
0g
0c
0a
1\
1L
0i
1T
0P
1N
1H
1E
0H
1B
17
04
1I
0I
18
09
19
#2910000
0!
0/
00
0'
#2925000
1!
1/
10
1'
0h
0b
1^
1U
0Q
1O
0f
1z
1t
0p
1l
1j
0\
0L
#2940000
0!
0/
00
0'
#2955000
1!
1/
10
1'
0}
0q
0m
1k
0^
0r
0n
1|
1p
1c
1_
0~
0.
0&
#2970000
0!
0/
00
0'
#2985000
1!
1/
10
1'
1}
0s
1q
0o
1m
1`
0t
1r
0p
1n
1a
0_
1~
1.
1&
